…
In order to view the results in an intuitive way, it will be nice to
arrange these birds in an order where all the putatively pure birds are
together and the putative hybrids are also near one another in the data
set. We can learn which birds are which from the “popmap” files for each
of them. These files look like:

###### popmap_allybch.csv

``` r
popmap_all <- read_csv("data/popmap_allybch.csv")
popmap_all
```

    ## # A tibble: 235 × 10
    ##    BGP_ID    Lat   Long State color   Population sample    pop      pop2    pop1
    ##    <chr>   <dbl>  <dbl> <chr> <chr>   <chr>      <chr>     <chr>   <dbl>   <dbl>
    ##  1 96N0042  41.1 -122.  CA    #004488 western    Y_96N004… p2    1.00e+0 1.01e-4
    ##  2 96N0238  36.3 -122.  CA    #004488 western    Y_96N023… p2    1.00e+0 1.02e-4
    ##  3 96N0349  40.9 -110.  UT    #004488 western    Y_96N034… p2    9.96e-1 4.41e-3
    ##  4 97N5522  40.8 -124.  CA    #004488 western    Y_97N552… p2    1.00e+0 1.01e-4
    ##  5 98N3098  42.3  -75.8 NY    #5aae61 eastern    Y_98N309… p1    1.01e-4 1.00e+0
    ##  6 98N3156  32.8  -80.0 SC    #5aae61 eastern    Y_98N315… p1    1.01e-4 1.00e+0
    ##  7 98N3248  42.6 -109.  WY    #004488 western    Y_98N324… p2    1.00e+0 1.02e-4
    ##  8 98N5070  39.0  -96.8 KS    #5aae61 eastern    Y_98N507… p1    1.00e-4 1.00e+0
    ##  9 98N5244  39.3  -94.9 KS    #5aae61 eastern    Y_98N524… p1    4.55e-2 9.54e-1
    ## 10 99N0449  42.5 -121.  OR    #004488 western    Y_99N044… p2    1.00e+0 1.02e-4
    ## # ℹ 225 more rows

###### popmap_hz.csv

``` r
popmap_hz <- read_csv("data/popmap_hz.csv")
popmap_hz
```

    ## # A tibble: 93 × 10
    ##    BGP_ID   Lat  Long State Color   Missingness_16milSNPs  pop1     pop2 sample 
    ##    <chr>  <dbl> <dbl> <chr> <chr>                   <dbl> <dbl>    <dbl> <chr>  
    ##  1 YBCH1   30.3 -97.6 TX    #5aae61               0.0179  1.00  0.0001   YBCH1_…
    ##  2 YBCH3   30.5 -95.6 TX    #5aae61               0.0283  0.966 0.0337   YBCH3_…
    ##  3 YBCH5   30.5 -95.6 TX    #5aae61               0.0845  0.971 0.0290   YBCH5_…
    ##  4 YBCH6   30.6 -95.6 TX    #5aae61               0.0625  1.00  0.000100 YBCH6_…
    ##  5 YBCH7   30.5 -95.7 TX    #5aae61               0.0823  0.895 0.105    YBCH7_…
    ##  6 YBCH8   30.6 -95.6 TX    #5aae61               0.0578  0.940 0.0597   YBCH8_…
    ##  7 YBCH11  34.1 -94.6 OK    #5aae61               0.0496  0.971 0.0292   YBCH11…
    ##  8 YBCH12  34.1 -94.6 OK    #5aae61               0.0202  0.965 0.0354   YBCH12…
    ##  9 YBCH14  34.5 -95.3 OK    #5aae61               0.0280  0.973 0.0273   YBCH14…
    ## 10 YBCH15  34.5 -95.4 OK    #5aae61               0.00641 1.00  0.000100 YBCH15…
    ## # ℹ 83 more rows
    ## # ℹ 1 more variable: pop <chr>
…
